AMBON CITY CENTER XXI
27-03-2019Rp.35,000
12:30 14:40 16:50 19:00 21:10
E-WALK XXI
27-03-2019Rp.35,000
12:45 14:55 17:05 19:15 21:25
PENTACITY XXI
27-03-2019Rp.35,000
12:45 14:55 17:05 19:15 21:25
BRAGA XXI
27-03-2019Rp.30,000
14:10 17:55 19:15
BTC XXI
27-03-2019Rp.30,000
14:25 16:35 20:15
CIWALK XXI
27-03-2019Rp.35,000
12:30 14:40 16:50 19:00 21:10
EMPIRE XXI BANDUNG
27-03-2019Rp.35,000
17:00 21:10
FESTIVAL CITYLINK XXI
27-03-2019Rp.30,000
12:15 14:25 19:10
JATOS
27-03-2019Rp.30,000
12:45 14:55 17:05 19:15 21:25
TRANSMART BUAH BATU XXI
27-03-2019Rp.30,000
16:40 21:10
TSM XXI
27-03-2019Rp.35,000
12:45 14:55 17:05 19:15 21:25
UBERTOS XXI
27-03-2019Rp.25,000
12:15 14:25 19:10
STUDIO XXI BANJARMASIN
27-03-2019Rp.50,000
12:30 14:40 16:50 19:00 21:10
BCS BATAM
27-03-2019Rp.35,000
12:30 14:40 16:50 19:00 21:10
STUDIO XXI BATAM
27-03-2019Rp.35,000
12:30 14:40 16:50 19:00 21:10
CIPUTRA CIBUBUR XXI
27-03-2019Rp.35,000
12:45 14:55 17:05 19:15 21:25
GRAND METROPOLITAN XXI
27-03-2019Rp.35,000
12:45 14:55 17:05 19:15 21:25
MEGA BEKASI XXI
27-03-2019Rp.30,000
12:30 14:40 16:50 19:00 21:10
METROPOLITAN XXI
27-03-2019Rp.30,000
12:30 14:40 16:50 19:00 21:10
PLASA CIBUBUR XXI
27-03-2019Rp.30,000
12:30 14:40 16:50 19:00 21:10
PONDOK GEDE XXI
27-03-2019Rp.35,000
12:45 14:55 17:05 19:15 21:25
BENCOOLEN XXI
27-03-2019Rp.35,000
12:20 14:30 16:40 18:50 21:00
BOTANI SQUARE XXI
27-03-2019Rp.40,000
12:45 14:55 17:05 19:15 21:25
CIBINONG CITY XXI
27-03-2019Rp.35,000
12:45 14:55 17:05 19:15 21:25
CINERE BELLEVUE XXI
27-03-2019Rp.35,000
12:30 14:40 16:50 19:00 21:10
DEPOK XXI
27-03-2019Rp.30,000
12:30 14:40 16:50 19:00 21:10
PESONA SQUARE XXI
27-03-2019Rp.35,000
12:45 14:55 17:05 19:15 21:25
CILEGON CENTER MALL XXI
27-03-2019Rp.35,000
12:30 14:40 16:50 19:00 21:10
CSB XXI
27-03-2019Rp.35,000
12:30 14:40 16:50 19:00 21:10
BEACH WALK XXI
27-03-2019Rp.45,000
12:30 14:40 16:50 19:00 21:10
PARK 23 XXI
27-03-2019Rp.35,000
12:30 14:40 16:50 19:00 21:10
GARUT XXI
27-03-2019Rp.30,000
12:30 14:40 16:50 19:00 21:10
GORONTALO XXI
27-03-2019Rp.35,000
12:30 14:40 16:50 19:00 21:10
GRESSMALL XXI
27-03-2019Rp.30,000
12:30 14:40 16:50 19:00 21:10
ARION XXI
27-03-2019Rp.35,000
14:35 19:20
ARTHA GADING XXI
27-03-2019Rp.40,000
12:45 14:55 17:05 19:15 21:25
BASSURA XXI
27-03-2019Rp.35,000
12:45 14:55 17:05 19:15 21:25
BAYWALK PLUIT XXI
27-03-2019Rp.40,000
12:45 14:55 17:05 19:15 21:25
BLOK M PLAZA
27-03-2019Rp.35,000
12:45 14:55 17:05 19:15 21:25
BLOK M SQUARE
27-03-2019Rp.35,000
12:30 14:40 16:50 19:00 21:10
CIPINANG XXI
27-03-2019Rp.40,000
12:45 14:55 17:05 19:15 21:25
CIPLAZ KLENDER XXI
27-03-2019Rp.30,000
12:30 14:40 16:50 19:00 21:10
CITRA XXI
27-03-2019Rp.40,000
12:30 14:40 16:50 19:00 21:10
CITY PLAZA JATINEGARA XXI
27-03-2019Rp.35,000
12:45 14:55 17:05 19:15 21:25
DJAKARTA XXI
27-03-2019Rp.35,000
12:45 14:55 17:05 19:15 21:25
EMPORIUM PLUIT XXI
27-03-2019Rp.45,000
12:45 14:55 17:05 19:15 21:25
GANDARIA CITY XXI
27-03-2019Rp.45,000
12:45 14:55 17:05 19:15 21:25
GRAND PARAGON XXI
27-03-2019Rp.35,000
12:45 14:55 17:05 19:15 21:25
HOLLYWOOD XXI
27-03-2019Rp.35,000
12:45 14:55 17:05 19:15 21:25
KELAPA GADING PREMIERE
27-03-2019Rp.100,000
12:30 14:40 16:50 19:00 21:10
KELAPA GADING XXI
27-03-2019Rp.45,000
12:45 14:55 17:05 19:15 21:25
KEMANG VILLAGE PREMIERE
27-03-2019Rp.75,000
13:00 15:10 17:20 19:30 21:40
KEMANG VILLAGE XXI
27-03-2019Rp.45,000
12:45 14:55 17:05 21:20
KOTA KASABLANKA XXI
27-03-2019Rp.45,000
12:30 14:40 16:50 19:00 21:10
KTM XXI
27-03-2019Rp.35,000
12:30 14:40 16:50 19:00 21:10
KUNINGAN CITY XXI
27-03-2019Rp.35,000
12:30 14:40 16:50 19:00 21:10
LOTTE SHOPPING AVENUE PREMIERE
27-03-2019Rp.75,000
12:30 14:40 16:50 19:00 21:10
LOTTE SHOPPING AVENUE XXI
27-03-2019Rp.45,000
12:45 14:55 17:05 19:15 21:25
METROPOLE XXI
27-03-2019Rp.40,000
12:30 14:40 16:50 19:00 21:10
ONE BELPARK XXI
27-03-2019Rp.35,000
12:45 14:55 17:05 19:15 21:25
PLAZA INDONESIA XXI
27-03-2019Rp.50,000
12:45 14:55 17:05 19:15 21:25
PLAZA SENAYAN PREMIERE
27-03-2019Rp.100,000
12:30 14:40 16:50 19:00
PLAZA SENAYAN XXI
27-03-2019Rp.50,000
12:45 14:55 17:05 19:15 21:25
PLUIT JUNCTION XXI
27-03-2019Rp.35,000
12:30 14:40 16:50 19:00 21:10
PONDOK INDAH 1 XXI
27-03-2019Rp.50,000
12:30 14:40 16:50 19:00 21:10
PURI XXI
27-03-2019Rp.40,000
12:30 14:40 16:50 19:00 21:10
SENAYAN CITY XXI
27-03-2019Rp.45,000
12:15 14:25 19:10
SETIABUDI XXI
27-03-2019Rp.35,000
12:15 14:25 19:10
ST. MORITZ XXI
27-03-2019Rp.50,000
12:45 14:55 17:05 19:15 21:25
TAMAN ANGGREK XXI
27-03-2019Rp.45,000
12:45 14:55 17:05 19:15 21:25
JAMTOS XXI
27-03-2019Rp.35,000
12:30 14:40 16:50 19:00 21:10
WTC XXI
27-03-2019Rp.35,000
12:15 14:25 16:35 18:45 20:55
JAYAPURA XXI
27-03-2019Rp.50,000
12:30 14:40 16:50 19:00 21:10
RESINDA PARK MALL XXI
27-03-2019Rp.25,000
14:50 16:45 19:20 21:25
KISARAN XXI
27-03-2019Rp.35,000
13:00 15:10 17:20 19:30 21:40
TRANSMART KUPANG XXI
27-03-2019Rp.25,000
12:30 14:40 16:50 19:00 21:10
CENTRAL
27-03-2019Rp.35,000
12:15 14:25 16:35 18:45 20:55
MALKARTINI XXI
27-03-2019Rp.35,000
12:45 14:55 17:05 19:15 21:25
NIPAH XXI
27-03-2019Rp.35,000
12:30 14:40 16:50 19:00 21:10
PANAKKUKANG
27-03-2019Rp.35,000
12:30 14:40 16:50 19:00 21:10
PANAKKUKANG PREMIERE
27-03-2019Rp.75,000
12:45 14:55 17:05 19:15 21:25
ARAYA XXI
27-03-2019Rp.30,000
12:30 14:40 16:50 19:00 21:10
TRANSMART MX MALL XXI
27-03-2019Rp.30,000
17:05 21:40
MANTOS 3 PREMIERE
27-03-2019Rp.60,000
12:45 14:55 17:05 19:15 21:25
MANTOS 3 XXI
27-03-2019Rp.35,000
12:45 14:55 17:05 19:15 21:25
MEGA MALL XXI
27-03-2019Rp.25,000
12:45 14:55 17:05 19:15 21:25
LEM XXI
27-03-2019Rp.35,000
12:30 14:40 16:50 19:00 21:10
CENTRE POINT PREMIERE
27-03-2019Rp.75,000
13:00 15:10 17:20 19:30 21:40
CENTRE POINT XXI
27-03-2019Rp.40,000
12:30 14:40 16:50 21:25
MANHATTAN XXI
27-03-2019Rp.35,000
13:00 15:10 17:20 19:30 21:40
MILLENNIUM XXI
27-03-2019Rp.25,000
13:00 15:10 17:20 19:30 21:40
RINGROAD CITYWALKS XXI
27-03-2019Rp.35,000
13:00 15:10 17:20 19:30 21:40
SUZUYA PLAZA XXI
27-03-2019Rp.30,000
12:30 14:40 16:50 19:00 21:10
PLAZA ANDALAS XXI
27-03-2019Rp.35,000
12:30 14:40 16:50 19:00 21:10
INTERNASIONAL
27-03-2019Rp.25,000
12:00 14:10 16:20 18:30 20:40
OPI MALL XXI
27-03-2019Rp.30,000
12:15 14:25 16:35 18:45 20:55
PALEMBANG SQUARE XXI
27-03-2019Rp.35,000
14:25 16:40 19:15 21:05
PEKALONGAN XXI
27-03-2019Rp.30,000
14:20 19:05 21:15
CIPUTRA SERAYA PREMIERE
27-03-2019Rp.60,000
12:30 14:40 16:50 19:00 21:10
CIPUTRA SERAYA XXI
27-03-2019Rp.35,000
12:45 14:55 17:05 19:15 21:25
SKA PREMIERE
27-03-2019Rp.60,000
12:45 14:55 17:05 19:15 21:25
SKA XXI PEKANBARU
27-03-2019Rp.35,000
17:05 21:40
AYANI XXI
27-03-2019Rp.45,000
12:15 14:25 16:35 18:45 20:55
TRANSMART PONTIANAK XXI
27-03-2019Rp.35,000
12:00 14:10 18:25
SUZUYA RANTAU PRAPAT XXI
27-03-2019Rp.30,000
13:00 15:10 17:20 19:30 21:40
BIG MALL XXI
27-03-2019Rp.40,000
12:15 14:25 16:35 18:45 20:55
SCP XXI
27-03-2019Rp.40,000
12:30 14:40 16:50 19:00 21:10
DP MALL XXI
27-03-2019Rp.40,000
12:15 14:25 16:35 18:45 20:55
TRANSMART SETIABUDI XXI
27-03-2019Rp.35,000
12:15 14:25 16:35 18:45 20:55
CIPLAZ SIDOARJO XXI
27-03-2019Rp.25,000
12:45 14:55 17:05 19:15 21:25
SGM XXI SINGKAWANG
27-03-2019Rp.35,000
12:15 14:25 16:35 18:45 20:55
