AMBON CITY CENTER XXI
27-03-2019Rp.35,000
13:00 15:35 18:10 20:45
E-WALK XXI
27-03-2019Rp.35,000
12:30 15:05 17:40 20:15
STUDIO XXI BALIKPAPAN
27-03-2019Rp.25,000
13:30 18:25
BRAGA XXI
27-03-2019Rp.30,000
12:45 15:20 20:05
BTC XXI
27-03-2019Rp.30,000
12:30 15:05 17:40 20:15
CIWALK XXI
27-03-2019Rp.35,000
12:00 13:00 14:35 15:35 17:10 18:10 19:45 20:45
EMPIRE XXI BANDUNG
27-03-2019Rp.35,000
12:30 15:05 17:40 20:15
FESTIVAL CITYLINK XXI
27-03-2019Rp.30,000
12:30 15:05 17:40 20:15
JATOS
27-03-2019Rp.30,000
12:30 15:05 17:40 20:15
TRANSMART BUAH BATU XXI
27-03-2019Rp.30,000
12:30 15:05 17:40 20:15
TSM XXI
27-03-2019Rp.35,000
13:55 16:30 19:05 21:40
UBERTOS XXI
27-03-2019Rp.25,000
12:30 15:05 17:40 20:15
STUDIO XXI BANJARMASIN
27-03-2019Rp.50,000
13:00 13:30 15:35 16:05 18:10 18:40 20:45 21:15
BCS BATAM
27-03-2019Rp.35,000
13:15 15:50 18:25 21:00
GRAND MAL BEKASI
27-03-2019Rp.30,000
13:45 16:20 18:55 21:30
GRAND METROPOLITAN PREMIERE
27-03-2019Rp.60,000
12:30 15:05 17:40 20:15
MEGA BEKASI XXI
27-03-2019Rp.30,000
13:15 15:50 18:25 21:00
METROPOLITAN XXI
27-03-2019Rp.30,000
12:45 15:20 17:55 20:30
PLASA CIBUBUR XXI
27-03-2019Rp.30,000
12:15 14:50 17:25 20:00
PONDOK GEDE XXI
27-03-2019Rp.35,000
13:00 15:35 18:10 20:45
REVO TOWN XXI
27-03-2019Rp.25,000
16:25 21:05
SUMMARECON MAL BEKASI XXI
27-03-2019Rp.40,000
13:15 15:50 18:25 21:00
BENCOOLEN XXI
27-03-2019Rp.35,000
13:00 15:35 18:10 20:45
MEGA 21 BENGKULU
27-03-2019Rp.25,000
12:30 17:30
BOGOR SQUARE XXI
27-03-2019Rp.30,000
12:30 15:05 17:40 20:15
BOTANI SQUARE XXI
27-03-2019Rp.40,000
13:30 16:05 18:40 21:15
BTM BOGOR TRADE MALL
27-03-2019Rp.30,000
12:45 15:20 17:55 20:30
CIBINONG CITY XXI
27-03-2019Rp.35,000
12:30 15:05 17:40 20:15
CINERE
27-03-2019Rp.30,000
13:00 15:35 18:10 20:45
CINERE BELLEVUE XXI
27-03-2019Rp.35,000
13:00 15:35 18:10 20:45
DEPOK XXI
27-03-2019Rp.30,000
12:30 15:05 17:40 20:15
METMALL CILEUNGSI XXI
27-03-2019Rp.30,000
12:45 15:20 17:55 20:30
PESONA SQUARE XXI
27-03-2019Rp.35,000
12:30 15:05 17:40 20:15
TRANSMART BOGOR XXI
27-03-2019Rp.35,000
12:30 15:05 17:40 20:15
CILEGON CENTER MALL XXI
27-03-2019Rp.35,000
12:15 14:50 17:25 20:00
CILEGON XXI
27-03-2019Rp.30,000
13:15 15:50 18:25 21:00
CSB XXI
27-03-2019Rp.35,000
12:30 15:05 17:40 20:15
LEVEL 21 XXI
27-03-2019Rp.50,000
13:00 15:35 18:10 20:45
PARK 23 XXI
27-03-2019Rp.35,000
13:00 15:35 18:10 20:45
GARUT XXI
27-03-2019Rp.30,000
16:55 21:35
GRESSMALL XXI
27-03-2019Rp.30,000
13:30 16:05 18:40 21:15
ARION XXI
27-03-2019Rp.35,000
12:00 16:45 21:30
ARTHA GADING XXI
27-03-2019Rp.40,000
12:30 15:05 17:40 20:15
ATRIUM XXI
27-03-2019Rp.35,000
13:15 15:50 18:25 21:00
BASSURA XXI
27-03-2019Rp.35,000
16:35 21:20
BLOK M PLAZA
27-03-2019Rp.35,000
13:00 15:35 18:10 20:45
BLOK M SQUARE
27-03-2019Rp.35,000
12:15 14:50 17:25 20:00
CIJANTUNG XXI
27-03-2019Rp.35,000
12:15 14:50 17:25 20:00
CIPINANG XXI
27-03-2019Rp.40,000
12:30 15:05 17:40 20:15
CIPLAZ KLENDER XXI
27-03-2019Rp.30,000
13:15 15:50 18:25 21:00
CITRA XXI
27-03-2019Rp.40,000
12:15 14:50 17:25 20:00
DAAN MOGOT XXI
27-03-2019Rp.35,000
13:00 15:35 18:10 20:45
EMPORIUM PLUIT XXI
27-03-2019Rp.45,000
13:30 16:05 18:40 21:15
GANDARIA CITY XXI
27-03-2019Rp.45,000
13:15 15:50 18:25 21:00
GRAND PARAGON XXI
27-03-2019Rp.35,000
12:45 15:20 17:55 20:30
HOLLYWOOD XXI
27-03-2019Rp.35,000
13:15 15:50 18:25 21:00
KALIBATA XXI
27-03-2019Rp.35,000
12:45 15:20 17:55 20:30
KELAPA GADING XXI
27-03-2019Rp.45,000
12:15 14:50 17:25 20:00
KEMANG VILLAGE XXI
27-03-2019Rp.45,000
13:30 16:05 18:40 21:15
KOTA KASABLANKA PREMIERE
27-03-2019Rp.75,000
13:30 16:05 18:40 21:15
KOTA KASABLANKA XXI
27-03-2019Rp.45,000
12:45 15:20 17:55 20:30
KTM XXI
27-03-2019Rp.35,000
13:00 15:35 18:10 20:45
KUNINGAN CITY XXI
27-03-2019Rp.35,000
12:15 14:50 17:25 20:00
LOTTE SHOPPING AVENUE XXI
27-03-2019Rp.45,000
13:15 15:50 18:25 21:00
ONE BELPARK XXI
27-03-2019Rp.35,000
13:00 15:35 18:10 20:45
PLAZA SENAYAN XXI
27-03-2019Rp.50,000
13:15 15:50 18:25 21:00
PONDOK INDAH 1 XXI
27-03-2019Rp.50,000
13:15 15:50 18:25 21:00
PURI XXI
27-03-2019Rp.40,000
13:15 15:50 18:25 21:00
SEASONS CITY XXI
27-03-2019Rp.35,000
13:00 15:35 18:10 20:45
SENAYAN CITY XXI
27-03-2019Rp.45,000
16:35 21:20
SETIABUDI XXI
27-03-2019Rp.35,000
16:35 21:20
ST. MORITZ XXI
27-03-2019Rp.50,000
12:30 15:05 17:40 20:15
TIM XXI
27-03-2019Rp.30,000
16:25 21:05
WTC XXI
27-03-2019Rp.35,000
12:00 14:35 17:10 19:45
JAYAPURA XXI
27-03-2019Rp.50,000
12:45 15:20 17:55 20:30
RESINDA PARK MALL XXI
27-03-2019Rp.25,000
13:00 15:35 18:10 20:45
BOEMI KEDATON XXI
27-03-2019Rp.45,000
13:30 16:05 18:40 21:15
CENTRAL
27-03-2019Rp.35,000
12:30 15:05 17:40 20:15
M`TOS XXI
27-03-2019Rp.30,000
12:15 14:50 17:25 20:00
NIPAH XXI
27-03-2019Rp.35,000
12:15 14:50 17:25 20:00
PANAKKUKANG
27-03-2019Rp.35,000
12:15 14:50 17:25 20:00
PANAKKUKANG XXI
27-03-2019Rp.40,000
13:15 15:50 18:25 21:00
STUDIO XXI MAKASSAR
27-03-2019Rp.35,000
12:15 14:50 17:25 20:00
ARAYA XXI
27-03-2019Rp.30,000
13:00 15:35 18:10 20:45
MANTOS 1 XXI
27-03-2019Rp.25,000
12:45 15:20 17:55 20:30
MANTOS 3 XXI
27-03-2019Rp.35,000
13:00 15:35 18:10 20:45
MEGA MALL XXI
27-03-2019Rp.25,000
12:30 15:05 17:40 20:15
LEM XXI
27-03-2019Rp.35,000
13:15 15:50 18:25 21:00
CENTRE POINT XXI
27-03-2019Rp.40,000
13:55 18:40 21:15
SUZUYA PLAZA XXI
27-03-2019Rp.30,000
12:30 15:05 17:40 20:15
THAMRIN XXI
27-03-2019Rp.35,000
12:15 17:10
PLAZA ANDALAS XXI
27-03-2019Rp.35,000
13:00 15:35 18:10 20:45
TRANSMART PADANG XXI
27-03-2019Rp.40,000
12:30 15:05 17:40 20:15
PALMA
27-03-2019Rp.40,000
13:15 15:50 18:25 21:00
INTERNASIONAL
27-03-2019Rp.25,000
12:15 14:50 17:25 20:00
OPI MALL XXI
27-03-2019Rp.30,000
12:30 15:05 17:40 20:15
PALEMBANG SQUARE XXI
27-03-2019Rp.35,000
13:00 15:35 18:10 20:45
PEKALONGAN XXI
27-03-2019Rp.30,000
11:45 16:30
SKA XXI PEKANBARU
27-03-2019Rp.35,000
13:15 15:55 18:35 21:15
AYANI XXI
27-03-2019Rp.45,000
12:30 15:05 17:40 20:15
TRANSMART PONTIANAK XXI
27-03-2019Rp.35,000
12:30 15:05 17:40 20:15
BIG MALL XXI
27-03-2019Rp.40,000
13:15 15:50 18:25 21:00
SAMARINDA SQUARE XXI
27-03-2019Rp.40,000
12:15 14:50 17:25 20:00
SCP 21
27-03-2019Rp.35,000
12:45 15:20 17:55 20:30
SCP XXI
27-03-2019Rp.40,000
13:00 15:35 18:10 20:45
CITRA XXI SEMARANG
27-03-2019Rp.40,000
12:15 14:50 17:25 20:00
DP MALL XXI
27-03-2019Rp.40,000
12:45 15:20 17:55 20:30
TRANSMART SETIABUDI XXI
27-03-2019Rp.35,000
12:45 15:20 17:55 20:30
CIPLAZ SIDOARJO XXI
27-03-2019Rp.25,000
13:30 18:30
