SUMMARECON MAL BEKASI
27-03-2019Rp.45,000
12:05 14:30 16:55 19:20 21:45
GANDARIA CITY
27-03-2019Rp.50,000
12:05 14:30 16:55 19:20 21:40
KELAPA GADING
27-03-2019Rp.50,000
12:05 14:30 16:55 19:20 21:45
