AMBON CITY CENTER XXI
27-03-2019Rp.35,000
12:00 14:25 16:50 19:15 21:40
E-WALK XXI
27-03-2019Rp.35,000
14:25 19:15 21:40
STUDIO XXI BALIKPAPAN
27-03-2019Rp.25,000
12:00 14:25 16:50 19:15 21:40
BRAGA XXI
27-03-2019Rp.30,000
11:45 16:20 18:45 21:10
CIWALK PREMIERE
27-03-2019Rp.60,000
12:15 14:40 17:05 19:30 21:55
CIWALK XXI
27-03-2019Rp.35,000
12:00 14:25 16:50 19:15 21:40
EMPIRE XXI BANDUNG
27-03-2019Rp.35,000
12:00 14:25 16:50 19:15 21:40
FESTIVAL CITYLINK XXI
27-03-2019Rp.30,000
12:00 14:25 16:50 19:15 21:40
JATOS
27-03-2019Rp.30,000
12:00 14:25 16:50 19:15 21:40
TRANSMART BUAH BATU XXI
27-03-2019Rp.30,000
12:00 14:25 16:50 19:15 21:40
TSM XXI
27-03-2019Rp.35,000
12:00 14:25 16:50 19:15 21:40
UBERTOS XXI
27-03-2019Rp.25,000
12:00 14:25 16:50 19:15 21:40
STUDIO XXI BANJARMASIN
27-03-2019Rp.50,000
12:00 14:25 16:50 19:15 21:40
BCS BATAM
27-03-2019Rp.35,000
12:00 14:25 16:50 19:15 21:40
MEGA XXI BATAM
27-03-2019Rp.35,000
12:15 14:35 16:55 19:15 21:35
CIPUTRA CIBUBUR XXI
27-03-2019Rp.35,000
12:05 14:30 16:55 19:20 21:45
GRAND MAL BEKASI
27-03-2019Rp.30,000
12:00 14:25 16:50 19:15 21:40
GRAND METROPOLITAN XXI
27-03-2019Rp.35,000
12:00 14:25 16:50 19:15 21:40
MEGA BEKASI XXI
27-03-2019Rp.30,000
12:00 14:25 16:50 19:15 21:40
METROPOLITAN XXI
27-03-2019Rp.30,000
12:05 14:30 16:55 19:20 21:45
PLASA CIBUBUR XXI
27-03-2019Rp.30,000
12:00 14:25 16:50 19:15 21:40
PONDOK GEDE XXI
27-03-2019Rp.35,000
12:00 14:25 16:50 19:15 21:40
REVO TOWN XXI
27-03-2019Rp.25,000
12:00 14:25 16:50 19:15 21:40
SUMMARECON MAL BEKASI XXI
27-03-2019Rp.40,000
12:00 14:25 16:50 19:15 21:40
MEGA 21 BENGKULU
27-03-2019Rp.25,000
15:05 20:05
BOGOR SQUARE XXI
27-03-2019Rp.30,000
12:05 14:30 16:55 19:20 21:45
BOTANI SQUARE XXI
27-03-2019Rp.40,000
12:05 14:30 16:55 19:20 21:45
CIBINONG CITY XXI
27-03-2019Rp.35,000
12:00 14:25 16:50 19:15 21:40
CINERE BELLEVUE XXI
27-03-2019Rp.35,000
12:00 14:25 16:50 19:15 21:40
DEPOK XXI
27-03-2019Rp.30,000
12:00 14:25 16:50 19:15 21:40
MARGO XXI
27-03-2019Rp.35,000
12:05 14:30 16:55 19:20 21:45
METMALL CILEUNGSI XXI
27-03-2019Rp.30,000
12:00 14:25 16:50 19:15 21:40
PESONA SQUARE XXI
27-03-2019Rp.35,000
12:00 14:25 16:50 19:15 21:40
TRANSMART BOGOR XXI
27-03-2019Rp.35,000
12:05 14:30 16:55 19:20 21:45
CILEGON CENTER MALL XXI
27-03-2019Rp.35,000
11:30 13:55 16:20 18:45 21:10
CSB XXI
27-03-2019Rp.35,000
11:45 14:10 16:35 19:00 21:25
GALERIA XXI
27-03-2019Rp.45,000
12:05 14:30 16:55 19:20 21:45
LEVEL 21 PREMIERE
27-03-2019Rp.75,000
12:00 14:25 16:50 19:15 21:40
PARK 23 XXI
27-03-2019Rp.35,000
12:00 14:25 16:50 19:15 21:40
GARUT XXI
27-03-2019Rp.30,000
11:45 14:10 16:35 19:00 21:25
GORONTALO XXI
27-03-2019Rp.35,000
12:00 14:25 16:50 19:15 21:40
GRESSMALL XXI
27-03-2019Rp.30,000
12:05 14:30 16:55 19:20 21:45
ARTHA GADING XXI
27-03-2019Rp.40,000
12:00 14:25 16:50 19:15 21:40
ATRIUM XXI
27-03-2019Rp.35,000
12:05 14:30 16:55 19:20 21:45
BASSURA XXI
27-03-2019Rp.35,000
12:00 14:25 16:50 19:15 21:40
BAYWALK PLUIT XXI
27-03-2019Rp.40,000
12:00 14:25 16:50 19:15 21:40
BLOK M PLAZA
27-03-2019Rp.35,000
12:05 14:30 16:55 19:20 21:45
CITRA XXI
27-03-2019Rp.40,000
12:00 14:25 16:50 19:15 21:40
CITY PLAZA JATINEGARA XXI
27-03-2019Rp.35,000
12:00 14:25 16:50 19:15 21:40
DAAN MOGOT XXI
27-03-2019Rp.35,000
12:00 14:25 16:50 19:15 21:40
EMPORIUM PLUIT XXI
27-03-2019Rp.45,000
12:05 14:30 16:55 19:20 21:45
GANDARIA CITY XXI
27-03-2019Rp.45,000
12:00 14:25 16:50 19:15 21:40
GRAND PARAGON XXI
27-03-2019Rp.35,000
12:00 14:25 16:50 19:15 21:40
HOLLYWOOD XXI
27-03-2019Rp.35,000
12:00 14:25 16:50 19:15 21:40
KALIBATA XXI
27-03-2019Rp.35,000
12:05 14:30 16:55 19:20 21:45
KELAPA GADING XXI
27-03-2019Rp.45,000
12:00 14:25 16:50 19:15 21:40
KEMANG VILLAGE XXI
27-03-2019Rp.45,000
12:00 14:25 16:50 19:15 21:40
KOTA KASABLANKA XXI
27-03-2019Rp.45,000
12:05 14:30 16:55 19:20 21:45
KUNINGAN CITY XXI
27-03-2019Rp.35,000
12:00 14:25 16:50 19:15 21:40
LOTTE SHOPPING AVENUE XXI
27-03-2019Rp.45,000
12:05 14:30 16:55 19:20 21:45
METROPOLE XXI
27-03-2019Rp.40,000
12:00 14:25 16:50 19:15 21:40
ONE BELPARK XXI
27-03-2019Rp.35,000
12:05 14:30 16:55 19:20 21:45
PLAZA INDONESIA XXI
27-03-2019Rp.50,000
12:00 14:25 16:50 19:15 21:40
PLAZA SENAYAN XXI
27-03-2019Rp.50,000
12:00 14:25 16:50 21:40
PLUIT JUNCTION XXI
27-03-2019Rp.35,000
12:00 14:25 16:50 19:15 21:40
PONDOK INDAH 1 XXI
27-03-2019Rp.50,000
12:00 14:25 16:50 19:15 21:40
PONDOK INDAH 2 XXI
27-03-2019Rp.50,000
12:05 14:30 16:55 19:20 21:45
PURI XXI
27-03-2019Rp.40,000
12:05 14:30 16:55 19:20 21:45
SENAYAN CITY PREMIERE
27-03-2019Rp.75,000
12:00 14:25 16:50 19:15 21:40
SENAYAN CITY XXI
27-03-2019Rp.45,000
12:05 14:30 16:55 19:20 21:45
SETIABUDI XXI
27-03-2019Rp.35,000
12:00 14:25 16:50 19:15 21:40
ST. MORITZ XXI
27-03-2019Rp.50,000
12:05 13:00 14:30 15:25 16:55 17:50 19:20 20:15 21:45
TAMAN ANGGREK XXI
27-03-2019Rp.45,000
12:00 14:25 16:50 19:15 21:40
TIM XXI
27-03-2019Rp.30,000
12:05 14:30 16:55 19:20 21:45
JAMTOS XXI
27-03-2019Rp.35,000
12:00 14:25 16:50 19:15 21:40
WTC XXI
27-03-2019Rp.35,000
12:00 14:25 16:50 19:15 21:40
JAYAPURA XXI
27-03-2019Rp.50,000
12:15 14:35 16:55 19:15 21:35
RESINDA PARK MALL XXI
27-03-2019Rp.25,000
12:05 14:30 16:55 19:20 21:45
TRANSMART KUPANG XXI
27-03-2019Rp.25,000
12:05 14:30 16:55 19:20 21:45
BOEMI KEDATON XXI
27-03-2019Rp.45,000
12:00 14:25 16:50 19:15 21:40
CENTRAL
27-03-2019Rp.35,000
12:00 14:25 16:50 19:15 21:40
MALKARTINI XXI
27-03-2019Rp.35,000
12:00 14:25 16:50 19:15 21:40
M`TOS XXI
27-03-2019Rp.30,000
12:00 14:25 16:50 19:15 21:40
NIPAH XXI
27-03-2019Rp.35,000
12:00 14:25 16:50 19:15 21:40
PANAKKUKANG
27-03-2019Rp.35,000
12:00 14:25 16:50 19:15 21:40
STUDIO XXI MAKASSAR
27-03-2019Rp.35,000
12:15 14:40 17:05 19:30 21:55
TSM XXI MAKASSAR
27-03-2019Rp.35,000
12:00 14:25 16:50 19:15 21:40
ARAYA XXI
27-03-2019Rp.30,000
12:05 14:30 16:55 19:20 21:45
DIENG
27-03-2019Rp.25,000
12:00 14:25 16:50 19:15 21:40
MANTOS 1 XXI
27-03-2019Rp.25,000
12:00 14:25 16:50 19:15 21:40
MEGA MALL XXI
27-03-2019Rp.25,000
12:00 14:25 16:50 19:15 21:40
LEM XXI
27-03-2019Rp.35,000
12:05 14:30 16:55 19:20 21:45
CENTRE POINT XXI
27-03-2019Rp.40,000
11:40 14:05 18:40 21:05
HERMES XXI
27-03-2019Rp.35,000
11:45 14:10 16:35 19:00 21:25
MANHATTAN XXI
27-03-2019Rp.35,000
11:45 14:10 16:35 19:00 21:25
RINGROAD CITYWALKS XXI
27-03-2019Rp.35,000
11:45 14:10 16:35 19:00 21:25
SUZUYA PLAZA XXI
27-03-2019Rp.30,000
19:00 21:25
THAMRIN XXI
27-03-2019Rp.35,000
11:45 14:10 16:35 19:00 21:25
PLAZA ANDALAS XXI
27-03-2019Rp.35,000
12:00 14:25 16:50 19:15 21:40
TRANSMART PADANG XXI
27-03-2019Rp.40,000
11:45 14:10 16:35 19:00 21:25
PALEMBANG SQUARE XXI
27-03-2019Rp.35,000
12:00 16:35 19:00 21:25
PIM PREMIERE PALEMBANG
27-03-2019Rp.50,000
14:20 18:50
PIM XXI
27-03-2019Rp.35,000
11:45 14:10 16:35 19:00 21:25
CIPUTRA SERAYA XXI
27-03-2019Rp.35,000
12:00 14:25 16:50 19:15 21:40
SKA XXI PEKANBARU
27-03-2019Rp.35,000
11:45 14:10 16:35 19:00 21:25
AYANI XXI
27-03-2019Rp.45,000
12:00 14:25 16:50 19:15 21:40
TRANSMART PONTIANAK XXI
27-03-2019Rp.35,000
12:15 14:30 16:45 19:00 21:15
BIG MALL XXI
27-03-2019Rp.40,000
12:30 17:00 21:30
SAMARINDA SQUARE XXI
27-03-2019Rp.40,000
12:00 14:25 16:50 19:15 21:40
SCP 21
27-03-2019Rp.35,000
12:00 14:25 16:50 19:15 21:40
DP MALL XXI
27-03-2019Rp.40,000
12:00 14:20 16:40 19:00 21:20
PARAGON XXI
27-03-2019Rp.40,000
12:00 14:25 16:50 19:15 21:40
