AMBON CITY CENTER XXI
27-03-2019Rp.35,000
13:00 17:10 19:15 21:20
PENTACITY XXI
27-03-2019Rp.35,000
12:45 14:50 16:55 19:00 21:05
STUDIO XXI BALIKPAPAN
27-03-2019Rp.25,000
12:45 14:50 16:55 19:00 21:05
BTC XXI
27-03-2019Rp.30,000
12:15 14:25 18:45 20:55
EMPIRE XXI BANDUNG
27-03-2019Rp.35,000
12:30 14:40 16:50 19:00 21:10
JATOS
27-03-2019Rp.30,000
12:15 14:25 16:35 18:45 20:55
TRANSMART BUAH BATU XXI
27-03-2019Rp.30,000
12:15 14:25 16:35 18:45 20:55
TSM XXI
27-03-2019Rp.35,000
12:30 14:40 16:50 19:00 21:10
UBERTOS XXI
27-03-2019Rp.25,000
12:30 14:40 16:50 19:00 21:10
STUDIO XXI BANJARMASIN
27-03-2019Rp.50,000
13:00 15:05 17:10 19:15 21:20
MEGA XXI BATAM
27-03-2019Rp.35,000
12:45 14:50 16:55 19:00 21:05
STUDIO XXI BATAM
27-03-2019Rp.35,000
12:45 14:50 16:55 19:00 21:05
GRAND MAL BEKASI
27-03-2019Rp.30,000
12:45 14:50 16:55 19:00 21:05
MEGA BEKASI XXI
27-03-2019Rp.30,000
12:45 14:50 16:55 19:00 21:05
PLASA CIBUBUR XXI
27-03-2019Rp.30,000
12:45 14:50 16:55 19:00 21:05
SUMMARECON MAL BEKASI XXI
27-03-2019Rp.40,000
13:00 15:05 17:10 19:15 21:20
BENCOOLEN XXI
27-03-2019Rp.35,000
12:30 14:35 16:40 19:00 21:05
BOTANI SQUARE XXI
27-03-2019Rp.40,000
13:00 15:05 17:10 19:15 21:20
BTM BOGOR TRADE MALL
27-03-2019Rp.30,000
12:45 14:50 16:55 19:00 21:05
CIBINONG CITY XXI
27-03-2019Rp.35,000
12:45 14:50 16:55 19:00 21:05
MARGO XXI
27-03-2019Rp.35,000
12:45 14:50 16:55 19:00 21:05
METMALL CILEUNGSI XXI
27-03-2019Rp.30,000
12:45 14:50 16:55 19:00 21:05
PESONA SQUARE XXI
27-03-2019Rp.35,000
13:00 15:05 17:10 19:15 21:20
TRANSMART BOGOR XXI
27-03-2019Rp.35,000
13:00 15:05 17:10 19:15 21:20
CILEGON XXI
27-03-2019Rp.30,000
12:30 14:35 16:40 18:45 20:50
CSB XXI
27-03-2019Rp.35,000
14:40 16:50 19:00 21:10
GRAGE
27-03-2019Rp.30,000
12:15 14:25 16:35 18:45 20:55
LEVEL 21 XXI
27-03-2019Rp.50,000
12:30 17:00
GARUT XXI
27-03-2019Rp.30,000
12:15 14:25 16:35 18:45 20:55
GORONTALO XXI
27-03-2019Rp.35,000
12:30 14:35 16:40 18:45 20:55
GRESSMALL XXI
27-03-2019Rp.30,000
14:35 19:15
ATRIUM XXI
27-03-2019Rp.35,000
12:30 14:35 16:40 18:45 20:50
BLOK M SQUARE
27-03-2019Rp.35,000
12:45 14:50 16:55 19:00 21:05
CIJANTUNG XXI
27-03-2019Rp.35,000
12:45 14:50 16:55 19:00 21:05
DAAN MOGOT XXI
27-03-2019Rp.35,000
12:45 14:50 16:55 19:00 21:05
KALIBATA XXI
27-03-2019Rp.35,000
12:15 16:40 21:05
KELAPA GADING XXI
27-03-2019Rp.45,000
12:45 14:50 16:55 19:00 21:05
KRAMAT JATI XXI
27-03-2019Rp.35,000
12:45 14:50 16:55 19:00 21:05
KTM XXI
27-03-2019Rp.35,000
12:45 14:50 16:55 19:00 21:05
PLAZA SENAYAN XXI
27-03-2019Rp.50,000
13:00 15:05 17:10 19:15 21:20
TIM XXI
27-03-2019Rp.30,000
12:15 14:20 19:00
JAMTOS XXI
27-03-2019Rp.35,000
12:15 14:20 16:25 18:30 20:35
JAYAPURA XXI
27-03-2019Rp.50,000
12:45 14:50 16:55 19:00 21:05
RESINDA PARK MALL XXI
27-03-2019Rp.25,000
12:30 14:35 18:55 21:00
KISARAN XXI
27-03-2019Rp.35,000
12:30 14:40 16:50 19:00 21:10
TRANSMART KUPANG XXI
27-03-2019Rp.25,000
12:45 14:50 16:55 19:00 21:05
MALKARTINI XXI
27-03-2019Rp.35,000
12:30 14:35 16:40 18:45 20:50
M`TOS XXI
27-03-2019Rp.30,000
12:45 14:50 16:55 19:00 21:05
NIPAH XXI
27-03-2019Rp.35,000
13:00 15:05 17:10 19:15 21:20
PANAKKUKANG XXI
27-03-2019Rp.40,000
12:30 14:35 16:40 18:45 20:50
TSM XXI MAKASSAR
27-03-2019Rp.35,000
13:00 17:10 19:15 21:20
MANDALA
27-03-2019Rp.25,000
12:15 14:20 16:25 18:30 20:35
MANTOS 1 XXI
27-03-2019Rp.25,000
13:00 15:05 17:10 19:15 21:20
MEGA MALL XXI
27-03-2019Rp.25,000
12:45 14:50 16:55 19:00 21:05
LEM XXI
27-03-2019Rp.35,000
12:45 14:50 16:55 19:00 21:05
CENTRE POINT XXI
27-03-2019Rp.40,000
16:30
HERMES XXI
27-03-2019Rp.35,000
12:30 14:40 16:50 19:00 21:10
RINGROAD CITYWALKS XXI
27-03-2019Rp.35,000
12:30 14:40 16:50 19:00 21:10
SUZUYA PLAZA XXI
27-03-2019Rp.30,000
12:30 14:40 16:50
THAMRIN XXI
27-03-2019Rp.35,000
12:30 14:40 16:50 19:00 21:10
TRANSMART PADANG XXI
27-03-2019Rp.40,000
12:30 14:35 16:40 18:45 20:50
PALMA
27-03-2019Rp.40,000
12:15 14:20 16:25 18:30 20:35
INTERNASIONAL
27-03-2019Rp.25,000
12:30 14:35 16:40 18:45 20:50
PALEMBANG SQUARE XXI
27-03-2019Rp.35,000
12:30 14:35 18:50 20:55
PEKALONGAN XXI
27-03-2019Rp.30,000
12:30 14:35 16:40 18:45 20:50
CIPUTRA SERAYA XXI
27-03-2019Rp.35,000
12:45 14:50 16:55 19:00 21:05
AYANI XXI
27-03-2019Rp.45,000
12:45 14:50 16:55 19:00 21:05
SUZUYA RANTAU PRAPAT XXI
27-03-2019Rp.30,000
12:30 14:40 16:50 19:00 21:10
BIG MALL XXI
27-03-2019Rp.40,000
12:30 14:35 16:40 18:45 20:50
SAMARINDA SQUARE XXI
27-03-2019Rp.40,000
14:50
CITRA XXI SEMARANG
27-03-2019Rp.40,000
12:30 14:35 16:40 18:45 20:50
PARAGON XXI
27-03-2019Rp.40,000
12:30 14:35 16:40 18:45 20:50
TRANSMART SETIABUDI XXI
27-03-2019Rp.35,000
12:45 14:50 16:55 19:00 21:05
TRANSMART SIDOARJO XXI
27-03-2019Rp.30,000
12:45 14:50 16:55 19:00 21:05
SGM XXI SINGKAWANG
27-03-2019Rp.35,000
13:00 15:05 17:10 19:15 21:20
